Project 1: Exploratory Data Analysis
…
tidy_primary <- primary_completion_rate_total_percent_of_relevant_age_group %>% 
    pivot_longer(c("2000", "2001", "2002", "2003", "2004", "2005", 
        "2006", "2007", "2008", "2009", "2010", "2011", "2012", 
        "2013", "2014", "2015", "2016", "2017", "2018"), names_to = "year", 
        values_to = "primary education")

tidy_income <- income_per_person_gdppercapita_ppp_inflation_adjusted %>% 
    pivot_longer(c("2000", "2001", "2002", "2003", "2004", "2005", 
        "2006", "2007", "2008", "2009", "2010", "2011", "2012", 
        "2013", "2014", "2015", "2016", "2017", "2018"), names_to = "year", 
        values_to = "income")

tidy_childmortality %>% na.omit()

## # A tibble: 3,705 x 3
##    country     year  cases
##    <chr>       <chr> <dbl>
##  1 Afghanistan 2000  129  
##  2 Afghanistan 2001  125  
##  3 Afghanistan 2002  121  
##  4 Afghanistan 2003  117  
##  5 Afghanistan 2004  113  
##  6 Afghanistan 2005  109  
##  7 Afghanistan 2006  104  
##  8 Afghanistan 2007  100  
##  9 Afghanistan 2008   96  
## 10 Afghanistan 2009   91.9
## # … with 3,695 more rows

tidy_income %>% na.omit()

## # A tibble: 3,667 x 3
##    country     year  income
##    <chr>       <chr>  <dbl>
##  1 Afghanistan 2000     687
##  2 Afghanistan 2001     646
##  3 Afghanistan 2002    1020
##  4 Afghanistan 2003    1060
##  5 Afghanistan 2004    1030
##  6 Afghanistan 2005    1100
##  7 Afghanistan 2006    1120
##  8 Afghanistan 2007    1250
##  9 Afghanistan 2008    1270
## 10 Afghanistan 2009    1500
## # … with 3,657 more rows

tidy_primary %>% na.omit()

## # A tibble: 2,304 x 3
##    country     year  `primary education`
##    <chr>       <chr>               <dbl>
##  1 Afghanistan 2016                0.799
##  2 Afghanistan 2017                0.844
##  3 Afghanistan 2018                0.856
##  4 Albania     2000                0.966
##  5 Albania     2001                0.964
##  6 Albania     2003                0.944
##  7 Albania     2004                0.934
##  8 Albania     2007                0.962
##  9 Albania     2008                0.924
## 10 Albania     2009                0.911
## # … with 2,294 more rows
…
##                        cases     income primary education
## cases              1.0000000 -0.4906608        -0.8344921
## income            -0.4906608  1.0000000         0.3724872
## primary education -0.8344921  0.3724872         1.0000000

The select function was used to create the correlation matrix of all of the numeric values in the merged data. According to this matrix, there is a relatively strong negative correlation between primary education completion rates and child mortality rates. This means that as the the rate of primary education completion goes up, the child mortality rate for children ages 0-5 goes down. When it comes to child mortality rate and income, there is a negative correlation. Even though it is not as strong, this means that as the child mortality rate increases, the income decreases. Finally, there is a weak positive correlation between primary education completion rate and income. As the primary education completion rate goes up, the income also increases, even though it is a weak correlation.

### Average Income Based on Country
Merged_Data %>% group_by(country) %>% summarize(mean(income, 
    na.rm = T))

## # A tibble: 195 x 2
##    country             `mean(income, na.rm = T)`
##    <chr>                                   <dbl>
##  1 Afghanistan                             1389.
##  2 Albania                                 9050 
##  3 Algeria                                12584.
##  4 Andorra                                41200 
##  5 Angola                                  5686.
##  6 Antigua and Barbuda                    21884.
##  7 Argentina                              17232.
##  8 Armenia                                 6444.
##  9 Australia                              40905.
## 10 Austria                                42884.
## # … with 185 more rows

Using the group_by function, I was able to isolate and calculate the average income for each country. The values are given in the table. Based on this, the country with the highest mean income is Qatar (114,736.8421) and the country with the lowest mean income is Somalia (615.8947).

### Filter for Year and Sorting by Child Mortality
Merged_Data %>% filter(year == "2018") %>% arrange(desc(cases, 
    na.rm = T))

## # A tibble: 195 x 5
##    country                  year  cases income `primary education`
##    <chr>                    <chr> <dbl>  <dbl>               <dbl>
##  1 Somalia                  2018  122      629              NA    
##  2 Nigeria                  2018  120     5320              NA    
##  3 Chad                     2018  119     1750              NA    
##  4 Central African Republic 2018  116      775              NA    
##  5 Sierra Leone             2018  105     1430               0.818
##  6 Guinea                   2018  101     2340              NA    
##  7 South Sudan              2018   98.6   1770              NA    
##  8 Mali                     2018   97.8   2060              NA    
##  9 Benin                    2018   93     2150              NA    
## 10 Congo, Dem. Rep.         2018   88.1    827              NA    
## # … with 185 more rows

Using the filter and arrange functions, I was able to isolate the data from all the countries into a single year to focus on. I picked 2018, since that was the latest year in all of the datasets. Once I filtered the data to only show data from 2018, I used the arrange function to arrange the data based on cases of child mortality. From this, I can tell that Somalia has the highest child mortality rates, compared to all of the other countries in this dataset.

### Using mutate function
Merged_Data %>% mutate(cases_by_100 = cases/10)

## # A tibble: 3,705 x 6
##    country     year  cases income `primary education` cases_by_100
##    <chr>       <chr> <dbl>  <dbl>               <dbl>        <dbl>
##  1 Afghanistan 2000  129      687                  NA        12.9 
##  2 Afghanistan 2001  125      646                  NA        12.5 
##  3 Afghanistan 2002  121     1020                  NA        12.1 
##  4 Afghanistan 2003  117     1060                  NA        11.7 
##  5 Afghanistan 2004  113     1030                  NA        11.3 
##  6 Afghanistan 2005  109     1100                  NA        10.9 
##  7 Afghanistan 2006  104     1120                  NA        10.4 
##  8 Afghanistan 2007  100     1250                  NA        10   
##  9 Afghanistan 2008   96     1270                  NA         9.6 
## 10 Afghanistan 2009   91.9   1500                  NA         9.19
## # … with 3,695 more rows
…
